beta,mach,perp-w-mean,perp-w-med,par-w-mean,par-w-med,perp-par-w-mean,perp-par-w-med
100,5,1.29,0.44,1.02,0.32,0.93,0.27
10,5,1.24,0.52,0.84,0.28,0.78,0.26
1,5,1.10,0.38,0.67,0.16,0.63,0.15
0.1,5,1.01,0.53,0.52,0.18,0.49,0.17
0.01,5,0.59,0.47,0.20,0.11,0.19,0.11

