#Mean prediction
beta:  [  1.00000000e-02   1.00000000e-01   1.00000000e+00   1.00000000e+01
   1.00000000e+02]
med_reg_perp:  [ 0.00144747  0.0049778   0.00846622  0.01220955  0.01853299]
med_rms_perp:  [ 0.00160226  0.00557466  0.00965396  0.01412359  0.02171899]
logavg_med_reg_rms_perp:  [ 0.0015229   0.00526692  0.00903734  0.01312569  0.02005264]
ANSWER:  [ 0.0012587   0.00558616  0.00786004  0.0138754   0.01175891]
#Median prediction
beta:  [  1.00000000e-02   1.00000000e-01   1.00000000e+00   1.00000000e+01
   1.00000000e+02]
mean_rms_par:  [ 0.00194653  0.00378757  0.00360859  0.00680234  0.00673307]
k06_lee14par_med_rms_perp:  [ 0.00109103  0.0036491   0.00620574  0.00885503  0.01390838]
ANSWER:  [ 0.00103669  0.00335614  0.0041846   0.00884258  0.00746094]
