#1st spike, sink ids MOVED
18 6 54 34 57 20 10 5 9 23 17 33 29 39 29 53 46 45 43 30 27 24 40
#1st spike, sink ids NOT moved
0 38 25 37 8 22 54 49 32 59 55 16 48 3 11 1 19 7 58 51 63 47 15 41 42 26 61 56 52 12 60 36 21 62 13 44 31 14 35 4 2 28 50
