USER           = dfieldin
WORKING_DIR    = /home1/dfieldin/ORION2/myProb/insert_sinks_DoesNotCrash/forPoutFiles/accrete_to_dnfloor
SYSTEM_NAME    = Linux
NODE_NAME      = pfe20
RELEASE        = 3.0.101-0.31.1.20140612-nasa
ARCH           = x86_64
BYTE_ORDER     = little
VERSION        = #1 SMP Thu Jun 12 20:02:17 UTC 2014 (87c5279)
ORION2_DIR     = /home1/dfieldin/ORION2
PLUTO_VERSION  = "3.01"
C_COMPILER     = gcc
MPI_C_COMPILER = mpicc
LIBPNG         = YES
