USER           = kaylanb
WORKING_DIR    = /global/home/users/kaylanb/ORION2/myProb/Lee14/perp
SYSTEM_NAME    = Linux
NODE_NAME      = ln002.brc
RELEASE        = 2.6.32-358.11.1.el6.x86_64
ARCH           = x86_64
BYTE_ORDER     = little
VERSION        = #1 SMP Tue Jun 11 17:23:30 CDT 2013
ORION2_DIR     = /global/home/users/kaylanb/ORION2/
PLUTO_VERSION  = "3.01"
C_COMPILER     = gcc
MPI_C_COMPILER = mpicc
LIBPNG         = YES
