USER           = kaylanb
WORKING_DIR    = /home1/03048/kaylanb/ORION2/myProb/production/256cube/MHD/sinks_ExtraPrintouts
SYSTEM_NAME    = Linux
NODE_NAME      = login3.stampede.tacc.utexas.edu
RELEASE        = 2.6.32-358.18.1.el6.x86_64
ARCH           = x86_64
BYTE_ORDER     = little
VERSION        = #1 SMP Wed Aug 28 17:19:38 UTC 2013
ORION2_DIR     = /home1/03048/kaylanb/ORION2/
PLUTO_VERSION  = "3.01"
C_COMPILER     = gcc
MPI_C_COMPILER = mpicc
LIBPNG         = YES
