USER           = kaylanb
WORKING_DIR    = /global/u2/k/kaylanb/ORION2_intel/myProb/Burleighetal/insertSinks
SYSTEM_NAME    = Linux
NODE_NAME      = edison09
RELEASE        = 3.0.101-0.46-default
ARCH           = x86_64
BYTE_ORDER     = little
VERSION        = #1 SMP Wed Dec 17 11:04:10 UTC 2014 (8356111)
ORION2_DIR     = /global/homes/k/kaylanb/ORION2_intel
PLUTO_VERSION  = "3.01"
C_COMPILER     = gcc
MPI_C_COMPILER = 
LIBPNG         = YES
