#beta sample_med -booterr +booterr -stdpdf +stdpdf
b100 0.0046452 0.00061155 0.00048517 0.0034794 0.005842
#beta sample_med -booterr +booterr -stdpdf +stdpdf
bInf 0.002309 0.00058678 0.0003896 0.001803 0.0056963
#beta sample_med -booterr +booterr -stdpdf +stdpdf
bInfsd3 0.0029422 0.00078933 0.00063961 0.0020978 0.0055331
#beta sample_med -booterr +booterr -stdpdf +stdpdf
b1e-2 0.0011503 0.00021703 5.8836e-05 0.00082578 0.00085155
#beta sample_med -booterr +booterr -stdpdf +stdpdf
b1e-1 0.0026414 0.00031249 0.00019452 0.0020893 0.0059251
#beta sample_med -booterr +booterr -stdpdf +stdpdf
b1 0.0030613 0.0010782 0.00066374 0.0027523 0.0079341
#beta sample_med -booterr +booterr -stdpdf +stdpdf
b10 0.0042706 0.00069133 0.0005691 0.003171 0.0086373
