USER           = kaylanb
WORKING_DIR    = /home1/03048/kaylanb/ORION2/myProb/production/256cube/MHD/ConvergStudy/1-SepSinks/insert_smr_grids
SYSTEM_NAME    = Linux
NODE_NAME      = login2.stampede.tacc.utexas.edu
RELEASE        = 2.6.32-431.17.1.el6.x86_64
ARCH           = x86_64
BYTE_ORDER     = little
VERSION        = #1 SMP Wed May 7 23:32:49 UTC 2014
ORION2_DIR     = /home1/03048/kaylanb/ORION2/
PLUTO_VERSION  = "3.01"
C_COMPILER     = gcc
MPI_C_COMPILER = mpicc
LIBPNG         = YES
